#541 - Eduz-szel-Ninezim

owner = F15
controller = F15
add_core = F15
add_core = F19
culture = sun_elf
religion = bulwari_sun_cult

base_tax = 3
base_production = 3
base_manpower = 3

trade_goods = incense

capital = ""

is_city = yes











add_nationalism = 10

add_permanent_province_modifier = {
	name = human_minority_coexisting_large
	duration = -1
}
