#Country Name: Please see filename.

graphical_culture = easterngfx

color = { 173 27 5 }
revolutionary_colors = { 4 8 4 }


historical_idea_groups = {
	economic_ideas
	religious_ideas
	influence_ideas
	defensive_ideas	
	administrative_ideas	
	trade_ideas
	quality_ideas
	aristocracy_ideas
}

historical_units = {
	native_indian_archer
	native_indian_tribal_warfare
	algonkin_tomahawk_charge
	native_indian_horsemen
	huron_arquebusier
	commanche_swarm
	native_indian_mountain_warfare
	american_western_franchise_warfare
}

monarch_names = {

	#Past Emperors
	"Joanseln #1" = 60
	"Gamelirn #1" = 60
	"Tranvit #1" = 60
	"Darastarad #1" = 60
	"Calasandor #1" = 60
	"Armynn #2" = 60
	"Calrodiy #3" = 60
	
	"Zeldja #1" = -20
	"Thalanvel #0" = -20
	
	#Generic Sarda names
	"Adrahel #0" = 0
	"Alaran #0" = 0
	"Aldarad #0" = 0
	"Aldarej #0" = 0
	"Alvarad #0" = 0
	"Andrelad #0" = 0
	"Aranthiv #0" = 0
	"Ardan #0" = 0
	"Ardordanad #0" = 0
	"Arfij #0" = 0
	"Artoraj #0" = 0
	"Calasanval #0" = 0
	"Calenval #0" = 0
	"Camir #0" = 0
	"Camirej #0" = 0
	"Camnarad #0" = 0
	"Carodin #0" = 0
	"Celadan #0" = 0
	"Celadanad #0" = 0
	"Celavit #0" = 0
	"Daranvit #0" = 0
	"Demirad #0" = 0
	"Dorendan #0" = 0
	"Eborad #0" = 0
	"Elanvit #0" = 0
	"Elecas #0" = 0
	"Elecaz #0" = 0
	"Elevad #0" = 0
	"Elran #0" = 0
	"Elrandan #0" = 0
	"Erandil #0" = 0
	"Erecas #0" = 0
	"Erenvit #0" = 0
	"Erlandil #0" = 0
	"Evinval #0" = 0
	"Filimir #0" = 0
	"Finoran #0" = 0
	"Galindan #0" = 0
	"Galinej #0" = 0
	"Galinvit #0" = 0
	"Gelenej #0" = 0
	"Gelmvit #0" = 0
	"Ibenad #0" = 0
	"Ivran #0" = 0
	"Ivrandiv #0" = 0
	"Ivranvit #0" = 0
	"Jaherad #0" = 0
	"Jahercad #0" = 0
	"Munarad #0" = 0
	"Nestercas #0" = 0
	"Oloran #0" = 0
	"Pelomir #0" = 0
	"Serondan #0" = 0
	"Serondorej #0" = 0
	"Seronval #0" = 0
	"Taelar #0" = 0
	"Taelaran #0" = 0
	"Taelaroj #0" = 0
	"Thalanor #0" = 0
	"Thalanvit #0" = 0
	"Thelrad #0" = 0
	"Thirendir #0" = 0
	"Thirenvit #0" = 0
	"Threthinor #0" = 0
	"Ultarad #0" = 0
	"Urad #0" = 0
	"Vaceran #0" = 0
	"Varamacas #0" = 0
	"Varamar #0" = 0
	"Varamel #0" = 0
	"Varamelan #0" = 0
	"Varamir #0" = 0
	"Varilor #0" = 0
	"Vindalej #0" = 0
	
	"Alara #0" = -1
	"Alarenka #0" = -1
	"Alarianvel #0" = -1
	"Alesadra #0" = -1
	"Amaredha #0" = -1
	"Ariadra #0" = -1
	"Ariadre #0" = -1
	"Calasadra #0" = -1
	"Camnava #0" = -1
	"Celadeva #0" = -1
	"Devesadra #0" = -1
	"Eborada #0" = -1
	"Elara #0" = -1
	"Elethen #0" = -1
	"Erezda #0" = -1
	"Erlanvel #0" = -1
	"Filinava #0" = -1
	"Galinvel #0" = -1
	"Imarezda #0" = -1
	"Iseheva #0" = -1
	"Iserana #0" = -1
	"Iseranvel #0" = -1
	"Istralana #0" = -1
	"Ivranvel #0" = -1
	"Ivranviel #0" = -1
	"Jexava #0" = -1
	"Ladrinvel #0" = -1
	"Lanahava #0" = -1
	"Lanalora #0" = -1
	"Leliezda #0" = -1
	"Leslinvel #0" = -1
	"Lianden #0" = -1
	"Merenka #0" = -1
	"Mihtrenka #0" = -1
	"Narezda #0" = -1
	"Nathasadra #0" = -1
	"Seluzia #0" = -1
	"Serova #0" = -1
	"Sharasadra #0" = -1
	"Sharenka #0" = -1
	"Sharinvel #0" = -1
	"Sherenka #0" = -1
	"Tanelana #0" = -1
	"Valanna #0" = -1
	"Varilvana #0" = -1
	"Varinna #0" = -1
	"Varivana #0" = -1
	"Vehara #0" = -1
	"Veharazda #0" = -1
	"Vesiava #0" = -1
	"Zalenka #0" = -1
	
}

leader_names = {
	Stibor
	Bel
	Kolla
	Podmanick
	Hatnansk
	Pongrac
	Veseléni
	Pongrácz
	Wesselén
	Beckovsk
	Jesenský
	Benyovsk
	Elefánth
	Balaša
}

ship_names = { 
	Bodrog Bebrava Belá Blava Bodva Dunajec "Cierna voda" Hornád Ipel
	Latorica Morava Ondava Poprad Rimava Slaná Žitava Torysa
}


army_names = {
	"Ynnic Army" "Army of $PROVINCE$"
}

fleet_names = {
	"Ynnic Fleet"
}